{
	"name" : "backup restore database",
	"description" : "backup restore database",
    "type" : "page",
    "version" : "1.0",
    "author" : "Alumagubi",
	"regid" : "backup-restore-database",
	"loader" : [
		"loader.php"
	]
}