{
	"name" : "alumarator medium font",
	"description" : "alumarator medium font editor",
	"type" : "page",
    "version" : "1.0",
    "author" : "alumarator",
    "regid" : "alumarator-medium-font",
	"routes" : [
		"administrator/page/*"
	],
	"loader" : [
		"medium-font-family.php"
	]
}